{
	"$schema": "https://raw.githubusercontent.com/martinring/tmlanguage/master/tmlanguage.json",
	"name": "zt",
	"patterns": [
		{
			"include": "#comments"
		},
		{
			"include": "#keywords"
		},
		{
			"include": "#operators"
		},
		{
			"include": "#preprocessor"
		},
		{
			"include": "#preprocessor.line"
		},
		{
			"include": "#strings"
		},
		{
			"include": "#variables"
		},
		{
			"include": "#constant.numeric"
		},
		{
			"include": "#lua"
		},
		{
			"include": "#underscore"
		},
		{
			"include": "#matcher"
		},
		{
			"include": "#optionname"
		}
	],
	"repository": {
		"keywords": {
			"name": "keyword.control.zt",
			"patterns": [
				{
					"name": "keyword.control.zt",
					"match": "\\b(feature|class|feature|ordered|setOptions|executeOnce)\\b"
				}
			]
		},
		"lua": {
			"name": "entity.lua.zt",
			"begin": "\\$\\$",
			"end": "\\$\\$",
			"patterns": [
				{
					"include": "source.lua"
				}
			]
		},
		"preprocessor": {
			"name": "keyword.control.preprocessor.zt",
			"patterns": [
				{
					"name": "keyword.control.preprocessor.zt",
					"match": "(%(?:ifdef|else_ifdef|else|define|undef|export|include(?:_lua)?(?:_once)?))"
				}
			]
		},
		"operators": {
			"name": "keyword.operator.zt",
			"patterns": [
				{
					"name": "keyword.operator.zt",
					"match": "(\\bNOT\\b|\\[|\\]|\\$\\(|[(){}<>=!:;*~|/,]|->)"
				}
			]
		},
		"strings": {
			"name": "string.quoted.double.zt",
			"begin": "\"",
			"end": "\"",
			"patterns": [
				{
					"name": "constant.character.escape.zt",
					"match": "\\\\."
				}
			]
		},
		"underscore": {
			"name": "variable.builtin.zt",
			"patterns": [
				{
					"name": "variable.builtin.zt",
					"match": "_|."
				}
			]
		},
		"optionname": {
			"name": "variable.builtin.zt",
			"patterns": [
				{
					"name": "variable.builtin.zt",
					"match": "(?<=/|setOptions) (once|loopsi|loopnsi|ltr|rtl)(?:\\s+(once|loopsi|loopnsi|ltr|rtl))*\\b"
				}
			]
		},
		"comments": {
			"name": "comment.zt",
			"begin": "#",
			"end": "$",
			"patterns": []
		},
		"constant.numeric": {
			"patterns": [
				{
					"name": "constant.numeric.zt",
					"match": "\\d+"
				}
			]
		},
		"variables": {
			"name": "variable.zt",
			"patterns": [
				{
					"name": "constant.character.alpha.zt",
					"match": "\\b(([A-Za-z]|[^\\x00-\\x7F])+)\\b"
				}
			]
		}
	},
	"scopeName": "source.zt"
}